Date,Slid No,Header,Parcel No,Product Description,Service Description,Collection,Delivery,Senders Ref,Weight,Items,Value,Handling Charge,EU Export Return Charge,Country
,,,,,,,,,,,,,,
28/09/2020,1676095772,15501676095772,15501676095772,PARCEL,NXTDAY,NEWBURY,CF72 8SQ,102793647,2,1,5.60,,,
28/09/2020,1676095775,15501676095775,15501676095775,PARCEL,NXTDAY,NEWBURY,CM12 0AE,102794317,3,1,5.60,,,
28/09/2020,1676095769,15501676095769,15501676095769,PARCEL,NXTDAY,NEWBURY,EN9 2LQ,102785192,4,1,5.60,,,
28/09/2020,1676095767,15501676095767,15501676095767,PARCEL,NXTDAY,NEWBURY,HX5 0AE,102784391,5,1,5.60,,,
28/09/2020,1676095721,15501676095721,15501676095721,PARCEL,NXTDAY,NEWBURY,IP12 4JN,102789701,3,1,5.60,,,
28/09/2020,1676095736,15501676095736,15501676095736,PARCEL,NXTDAY,NEWBURY,LD3 8ND,102791962,3,1,5.60,,,
28/09/2020,1676095752,15501676095752,15501676095752,PARCEL,NXTDAY,NEWBURY,LS29 0BA,102785904,3,1,5.60,,,
28/09/2020,1676095722,15501676095722,15501676095722,PARCEL,NXTDAY,NEWBURY,OX4 3BE,102790082,3,1,5.60,,,
28/09/2020,1676095720,15501676095720,15501676095720,PARCEL,NXTDAY,NEWBURY,RG8 9QH,102789793,12,1,5.60,,,
28/09/2020,1676095753,15501676095753,15501676095753,PARCEL,NXTDAY,NEWBURY,SW18 2NX,102785622,5,1,5.60,,,
28/09/2020,1676095764,15501676095764,15501676095764,PARCEL,NXTDAY,NEWBURY,SW5 9PR,102792282,4,1,5.60,,,
28/09/2020,1676095788,15501676095788,15501676095788,PARCEL,NXTDAY,NEWBURY,YO60 7NE,102792800,1,1,5.60,,,
29/09/2020,1676095819,15501676095819,15501676095819,PARCEL,NXTDAY,NEWBURY,BS8 1AR,102728712,5,1,5.60,,,
29/09/2020,1676095832,15501676095832,15501676095832,PARCEL,NXTDAY,NEWBURY,HP27 0LL,102728761,4,1,5.60,,,
29/09/2020,1676095812,15501676095812,15501676095812,PARCEL,NXTDAY,NEWBURY,PO40 9PZ,102793156,2,1,5.60,,,
29/09/2020,1676095811,15501676095811,15501676095811,PARCEL,NXTDAY,NEWBURY,SK10 3BN,102792253,5,1,5.60,,,
29/09/2020,1676095817,15501676095817,15501676095817,PARCEL,NXTDAY,NEWBURY,SK7 2HB,102732062,2,1,5.60,,,
30/09/2020,1676095805,15501676095805,15501676095805,PARCEL,NXTDAY,NEWBURY,DE15 0BE,102787996,4,1,5.60,,,
30/09/2020,1676095867,15501676095867,15501676095867,PARCEL,NXTDAY,NEWBURY,DT2 9FF,102789454,4,1,5.60,,,
30/09/2020,1676095837,15501676095837,15501676095837,PARCEL,NXTDAY,NEWBURY,E2 9LE,102728745,3,1,5.60,,,
30/09/2020,1676095844,15501676095844,15501676095844,PARCEL,NXTDAY,NEWBURY,G20 6JT,102757389,4,1,5.60,,,
30/09/2020,1676095834,15501676095834,15501676095834,PARCEL,NXTDAY,NEWBURY,GL7 7EA,102728225,3,1,5.60,,,
30/09/2020,1676095838,15501676095838,15501676095838,PARCEL,NXTDAY,NEWBURY,HA1 1EL,102728350,4,1,5.60,,,
30/09/2020,1676095857,15501676095857,15501676095857,PARCEL,NXTDAY,NEWBURY,HA8 9PZ,102790762,3,1,5.60,,,
30/09/2020,1676095836,15501676095836,15501676095836,PARCEL,NXTDAY,NEWBURY,HU17 8YD,102738400,3,1,5.60,,,
30/09/2020,1676095833,15501676095833,15501676095833,PARCEL,NXTDAY,NEWBURY,KT12 3QX,102730103,2,1,5.60,,,
30/09/2020,1676095843,15501676095843,15501676095843,PARCEL,NXTDAY,NEWBURY,LL13 0ST,102728760,8,1,5.60,,,
30/09/2020,1676095872,15501676095872,15501676095872,PARCEL,NXTDAY,NEWBURY,MK44 1BL,102793124,3,1,5.60,,,
30/09/2020,1676095849,15501676095849,15501676095849,PARCEL,NXTDAY,NEWBURY,PO4 8BF,102727989,15,1,5.60,,,
30/09/2020,1676095822,15501676095822,15501676095822,PARCEL,NXTDAY,NEWBURY,S6 6EB,102795694,4,1,5.60,,,
30/09/2020,1676095835,15501676095835,15501676095835,PARCEL,NXTDAY,NEWBURY,SE13 7DY,102748309,2,1,5.60,,,
30/09/2020,1676095847,15501676095847,15501676095847,PARCEL,NXTDAY,NEWBURY,SE13 7DY,102725560,6,1,5.60,,,
30/09/2020,1676095830,15501676095830,15501676095830,PARCEL,NXTDAY,NEWBURY,TR1 3EP,102728413,4,1,5.60,,,
30/09/2020,1676095845,15501676095845,15501676095845,PARCEL,NXTDAY,NEWBURY,W6 9AE,102750690,2,1,5.60,,,
30/09/2020,1676095848,15501676095848,15501676095848,PARCEL,NXTDAY,NEWBURY,YO8 5NA,102753630,5,1,5.60,,,
01/10/2020,1676095931,15501676095931,15501676095931,PARCEL,NXTDAY,NEWBURY,CH4 8JB,102794931,5,1,5.60,,,
01/10/2020,1676095880,15501676095880,15501676095880,PARCEL,NXTDAY,NEWBURY,DN36 4LB,102788157,8,1,5.60,,,
01/10/2020,1676095904,15501676095904,15501676095904,PARCEL,NXTDAY,NEWBURY,KT20 7RX,102796800,2,1,5.60,,,
01/10/2020,1676095932,15501676095932,15501676095932,PARCEL,NXTDAY,NEWBURY,KY12 7XP,102731576,10,1,5.60,,,
01/10/2020,1676095796,15501676095796,15501676095796,PARCEL,NXTDAY,NEWBURY,SW16 2HR,102793385,6,1,5.60,,,
01/10/2020,1676095916,15501676095916,15501676095916,PARCEL,NXTDAY,NEWBURY,SW17 8RG,102794976,3,1,5.60,,,
02/10/2020,1676095966,15501676095966,15501676095966,PARCEL,NXTDAY,NEWBURY,BB11 4QZ,102800856,5,1,5.60,,,
02/10/2020,1676095960,15501676095960,15501676095960,PARCEL,NXTDAY,NEWBURY,BS8 2TX,102797711,3,1,5.60,,,
02/10/2020,1676095986,15501676095986,15501676095986,PARCEL,NXTDAY,NEWBURY,KT11 2DN,102798952,4,1,5.60,,,
02/10/2020,1676095959,15501676095959,15501676095959,PARCEL,NXTDAY,NEWBURY,YO26 8DY,102797217,5,1,5.60,,,
02/10/2020,1676095976,15501676095976,15501676095976,PARCEL,NXTDAY,NEWBURY,GU23 6PG,102772706,7,1,5.60,8.18,,
28/09/2020,1676095773,15501676095773,15501676095773,PARCEL,NXTDAY,NEWBURY,BT28 2SB,102748431,3,1,17.48,,,
29/09/2020,1676095818,15501676095818,15501676095818,PARCEL,NXTDAY,NEWBURY,BT24 7DF,102785235,17,1,17.48,,,
29/09/2020,1676095816,15501676095816,15501676095816,PARCEL,NXTDAY,NEWBURY,BT79 0QJ,102791256,4,1,17.48,,,
30/09/2020,1676095866,15501676095866,15501676095866,PARCEL,NXTDAY,NEWBURY,BT12 6RD,102772876,50,1,17.48,,,
01/10/2020,1676095897,15501676095897,15501676095897,PARCEL,2DAY,NEWBURY,BT15 5FE,102773719,13,1,9.94,,,
02/10/2020,1676095985,15501676095985,15501676095985,PARCEL,NXTDAY,NEWBURY,BT12 6RD,102797246,7,1,17.48,,,
28/09/2020,1676095733,15501676095733,15501676095733,PARCEL,2DAY,NEWBURY,PA23 8BY,102789706,5,1,10.40,,,
28/09/2020,1676095711,15501676095711,15501676095711,PARCEL,NXTDAY,NEWBURY,GY4 6QQ,102764650,4,1,17.48,,,
01/10/2020,1676095892,15501676095892,15501676095892,PARCEL,2DAY,NEWBURY,IV6 7UP,102772176,17,1,10.40,,,
30/09/2020,1676095839,15501676095839,15501676095839,PARCEL,2DAY,NEWBURY,ZZ710AA,102725532,1,1,8.17,,,
28/09/2020,1676095682,15501676095682,15501676095682,PARCEL,CLASIC,NEWBURY,12305,1100254187,1,1,7.43,,,GERMANY
28/09/2020,1676095685,15501676095685,15501676095685,PARCEL,CLASIC,NEWBURY,2980,1200052266,3,1,9.03,,,DENMARK
28/09/2020,1676095686,15501676095686,15501676095686,PARCEL,CLASIC,NEWBURY,2970,1200052277,2,1,9.03,,,DENMARK
28/09/2020,1676095688,15501676095688,15501676095688,PARCEL,CLASIC,NEWBURY,2500,102785978,1,1,9.03,,,DENMARK
28/09/2020,1676095693,15501676095693,15501676095693,PARCEL,CLASIC,NEWBURY,57612,1100253448,1,1,7.43,,,GERMANY
28/09/2020,1676095694,15501676095694,15501676095694,PARCEL,CLASIC,NEWBURY,3660,1200052254,2,1,9.03,,,DENMARK
28/09/2020,1676095697,15501676095697,15501676095697,PARCEL,CLASIC,NEWBURY,2760,1200052339,2,1,9.03,,,DENMARK
28/09/2020,1676095699,15501676095699,15501676095699,PARCEL,CLASIC,NEWBURY,2920,1200052278,3,1,9.03,,,DENMARK
28/09/2020,1676095709,15501676095709,15501676095709,PARCEL,CLASIC,NEWBURY,6091,1200052494,1,1,9.03,,,DENMARK
28/09/2020,1676095710,15501676095710,15501676095710,PARCEL,CLASIC,NEWBURY,8260,1200052491,1,1,9.03,,,DENMARK
28/09/2020,1676095712,15501676095712,15501676095712,PARCEL,CLASIC,NEWBURY,4534,1200052487,1,1,9.03,,,DENMARK
28/09/2020,1676095714,15501676095714,15501676095714,PARCEL,CLASIC,NEWBURY,84170,1300183735,1,1,9.41,,,FRANCE
28/09/2020,1676095715,15501676095715,15501676095715,PARCEL,CLASIC,NEWBURY,54000,1300183810,1,1,9.41,,,FRANCE
28/09/2020,1676095716,15501676095716,15501676095716,PARCEL,CLASIC,NEWBURY,56812,1100254646,1,1,7.43,,,GERMANY
28/09/2020,1676095717,15501676095717,15501676095717,PARCEL,CLASIC,NEWBURY,92130,1300183804,1,1,9.41,,,FRANCE
28/09/2020,1676095718,15501676095718,15501676095718,PARCEL,CLASIC,NEWBURY,18057,1100251204,1,1,7.43,,,GERMANY
28/09/2020,1676095719,15501676095719,15501676095719,PARCEL,CLASIC,NEWBURY,2860,1200052520,1,1,9.03,,,DENMARK
28/09/2020,1676095723,15501676095723,15501676095723,PARCEL,CLASIC,NEWBURY,1220,1300183877,7,1,9.41,,,FRANCE
28/09/2020,1676095724,15501676095724,15501676095724,PARCEL,CLASIC,NEWBURY,3050,1200052536,4,1,9.03,,,DENMARK
28/09/2020,1676095726,15501676095726,15501676095726,PARCEL,CLASIC,NEWBURY,1970,1200052517,1,1,9.03,,,DENMARK
28/09/2020,1676095727,15501676095727,15501676095727,PARCEL,CLASIC,NEWBURY,15200,1400068261,3,1,10.65,,,SPAIN
28/09/2020,1676095728,15501676095728,15501676095728,PARCEL,CLASIC,NEWBURY,8700,1200052531,1,1,9.03,,,DENMARK
28/09/2020,1676095729,15501676095729,15501676095729,PARCEL,CLASIC,NEWBURY,4773,1200052544,1,1,9.03,,,DENMARK
28/09/2020,1676095730,15501676095730,15501676095730,PARCEL,CLASIC,NEWBURY,3300,1200052547,1,1,9.03,,,DENMARK
28/09/2020,1676095731,15501676095731,15501676095731,PARCEL,CLASIC,NEWBURY,8370,1200052537,1,1,9.03,,,DENMARK
28/09/2020,1676095732,15501676095732,15501676095732,PARCEL,CLASIC,NEWBURY,29692,1400068256,1,1,10.65,,,SPAIN
28/09/2020,1676095735,15501676095735,15501676095735,PARCEL,CLASIC,NEWBURY,3460,1200052526,1,1,9.03,,,DENMARK
28/09/2020,1676095737,15501676095737,15501676095737,PARCEL,CLASIC,NEWBURY,3600,1200052047,2,1,9.03,,,DENMARK
28/09/2020,1676095738,15501676095738,15501676095738,PARCEL,CLASIC,NEWBURY,5250,1200052552,2,1,9.03,,,DENMARK
28/09/2020,1676095739,15501676095739,15501676095739,PARCEL,CLASIC,NEWBURY,2750,1200052345,2,1,9.03,,,DENMARK
28/09/2020,1676095740,15501676095740,15501676095740,PARCEL,CLASIC,NEWBURY,8800,1200052161,3,1,9.03,,,DENMARK
28/09/2020,1676095741,15501676095741,15501676095741,PARCEL,CLASIC,NEWBURY,55270,1100251121,1,1,7.43,,,GERMANY
28/09/2020,1676095742,15501676095742,15501676095742,PARCEL,CLASIC,NEWBURY,31700,1300182320,1,1,9.41,,,FRANCE
28/09/2020,1676095743,15501676095743,15501676095743,PARCEL,CLASIC,NEWBURY,52223,1100253416,1,1,7.43,,,GERMANY
28/09/2020,1676095744,15501676095744,15501676095744,PARCEL,CLASIC,NEWBURY,76185,1100252636,2,1,7.43,,,GERMANY
28/09/2020,1676095745,15501676095745,15501676095745,PARCEL,CLASIC,NEWBURY,51371,1100253711,1,1,7.43,,,GERMANY
28/09/2020,1676095746,15501676095746,15501676095746,PARCEL,CLASIC,NEWBURY,71642,1100252879,1,1,7.43,,,GERMANY
28/09/2020,1676095747,15501676095747,15501676095747,PARCEL,CLASIC,NEWBURY,88433,1100253090,1,1,7.43,,,GERMANY
28/09/2020,1676095748,15501676095748,15501676095748,PARCEL,CLASIC,NEWBURY,40789,1100252495,2,1,7.43,,,GERMANY
28/09/2020,1676095749,15501676095749,15501676095749,PARCEL,CLASIC,NEWBURY,77933,1100252019,2,1,7.43,,,GERMANY
28/09/2020,1676095750,15501676095750,15501676095750,PARCEL,CLASIC,NEWBURY,2750,1200052121,2,1,9.03,,,DENMARK
28/09/2020,1676095751,15501676095751,15501676095751,PARCEL,CLASIC,NEWBURY,2750,102758023,2,1,9.03,,,DENMARK
28/09/2020,1676095754,15501676095754,15501676095754,PARCEL,CLASIC,NEWBURY,7100,1200052473,4,1,9.03,,,DENMARK
28/09/2020,1676095755,15501676095755,15501676095755,PARCEL,CLASIC,NEWBURY,8200,102753346,3,1,9.03,,,DENMARK
28/09/2020,1676095756,15501676095756,15501676095756,PARCEL,CLASIC,NEWBURY,2840,102786167,2,1,9.03,,,DENMARK
28/09/2020,1676095757,15501676095757,15501676095757,PARCEL,CLASIC,NEWBURY,3000,1200052067,2,1,9.03,,,DENMARK
28/09/2020,1676095758,15501676095758,15501676095758,PARCEL,CLASIC,NEWBURY,12621,1100253641,5,1,7.43,,,GERMANY
28/09/2020,1676095759,15501676095759,15501676095759,PARCEL,CLASIC,NEWBURY,8722,1200052092,1,1,9.03,,,DENMARK
28/09/2020,1676095760,15501676095760,15501676095760,PARCEL,CLASIC,NEWBURY,5230,1200052310,1,1,9.03,,,DENMARK
28/09/2020,1676095761,15501676095761,15501676095761,PARCEL,CLASIC,NEWBURY,3450,1200051997,2,1,9.03,,,DENMARK
28/09/2020,1676095762,15501676095762,15501676095762,PARCEL,CLASIC,NEWBURY,7430,1200052207,1,1,9.03,,,DENMARK
28/09/2020,1676095763,15501676095763,15501676095763,PARCEL,CLASIC,NEWBURY,80019,700127477,3,1,12.98,,,ESTONIA
28/09/2020,1676095765,15501676095765,15501676095765,PARCEL,CLASIC,NEWBURY,4030,1200051945,2,1,9.03,,,DENMARK
28/09/2020,1676095766,15501676095766,15501676095766,PARCEL,CLASIC,NEWBURY,2770,1200052522,2,1,9.03,,,DENMARK
28/09/2020,1676095768,15501676095768,15501676095768,PARCEL,CLASIC,NEWBURY,4700,1200052459,1,1,9.03,,,DENMARK
28/09/2020,1676095770,15501676095770,15501676095770,PARCEL,CLASIC,NEWBURY,8700,1200052513,1,1,9.03,,,DENMARK
28/09/2020,1676095774,15501676095774,15501676095774,PARCEL,CLASIC,NEWBURY,9900,1200052224,1,1,9.03,,,DENMARK
28/09/2020,1676095776,15501676095776,15501676095776,PARCEL,CLASIC,NEWBURY,8471,1200052023,1,1,9.03,,,DENMARK
28/09/2020,1676095777,15501676095777,15501676095777,PARCEL,CLASIC,NEWBURY,2760,1200052051,1,1,9.03,,,DENMARK
28/09/2020,1676095778,15501676095778,15501676095778,PARCEL,CLASIC,NEWBURY,4681,1200052037,4,1,9.03,,,DENMARK
28/09/2020,1676095779,15501676095779,15501676095779,PARCEL,CLASIC,NEWBURY,8700,1200051995,4,1,9.03,,,DENMARK
28/09/2020,1676095780,15501676095780,15501676095780,PARCEL,CLASIC,NEWBURY,4000,1200052034,1,1,9.03,,,DENMARK
28/09/2020,1676095781,15501676095781,15501676095781,PARCEL,CLASIC,NEWBURY,3140,1200052560,1,1,9.03,,,DENMARK
28/09/2020,1676095785,15501676095785,15501676095785,PARCEL,CLASIC,NEWBURY,47798,1100252420,1,1,7.43,,,GERMANY
28/09/2020,1676095786,15501676095786,15501676095786,PARCEL,CLASIC,NEWBURY,4000,1200052562,1,1,9.03,,,DENMARK
28/09/2020,1676095791,15501676095791,15501676095791,PARCEL,CLASIC,NEWBURY,2880,1200051923,2,1,9.03,,,DENMARK
29/09/2020,1676095705,15501676095705,15501676095705,PARCEL,CLASIC,NEWBURY,2880,1200051971,2,1,9.03,,,DENMARK
29/09/2020,1676095782,15501676095782,15501676095782,PARCEL,CLASIC,NEWBURY,2300,1200052571,1,1,9.03,,,DENMARK
29/09/2020,1676095783,15501676095783,15501676095783,PARCEL,CLASIC,NEWBURY,4180,1200052573,2,1,9.03,,,DENMARK
29/09/2020,1676095784,15501676095784,15501676095784,PARCEL,CLASIC,NEWBURY,79106,1100255876,1,1,7.43,,,GERMANY
29/09/2020,1676095787,15501676095787,15501676095787,PARCEL,CLASIC,NEWBURY,3320,1200052554,1,1,9.03,,,DENMARK
29/09/2020,1676095789,15501676095789,15501676095789,PARCEL,CLASIC,NEWBURY,7080,1200052330,3,1,9.03,,,DENMARK
29/09/2020,1676095790,15501676095790,15501676095790,PARCEL,CLASIC,NEWBURY,9600,1200052466,3,1,9.03,,,DENMARK
29/09/2020,1676095792,15501676095792,15501676095792,PARCEL,CLASIC,NEWBURY,3550,1200051936,2,1,9.03,,,DENMARK
29/09/2020,1676095793,15501676095793,15501676095793,PARCEL,CLASIC,NEWBURY,3500,1200052130,2,1,9.03,,,DENMARK
29/09/2020,1676095794,15501676095794,15501676095794,PARCEL,CLASIC,NEWBURY,61381,1100250912,2,1,7.43,,,GERMANY
29/09/2020,1676095795,15501676095795,15501676095795,PARCEL,CLASIC,NEWBURY,4540,1200052127,2,1,9.03,,,DENMARK
29/09/2020,1676095797,15501676095797,15501676095797,PARCEL,CLASIC,NEWBURY,4220,1200052514,1,1,9.03,,,DENMARK
29/09/2020,1676095798,15501676095798,15501676095798,PARCEL,CLASIC,NEWBURY,2770,1200052407,2,1,9.03,,,DENMARK
29/09/2020,1676095799,15501676095799,15501676095799,PARCEL,CLASIC,NEWBURY,2830,1200052492,1,1,9.03,,,DENMARK
29/09/2020,1676095800,15501676095800,15501676095800,PARCEL,CLASIC,NEWBURY,55270,1100251121,1,1,7.43,,,GERMANY
29/09/2020,1676095801,15501676095801,15501676095801,PARCEL,CLASIC,NEWBURY,3480,1200052313,1,1,9.03,,,DENMARK
29/09/2020,1676095802,15501676095802,15501676095802,PARCEL,CLASIC,NEWBURY,2500,102787041,1,1,9.03,,,DENMARK
29/09/2020,1676095803,15501676095803,15501676095803,PARCEL,CLASIC,NEWBURY,4000,1200051946,2,1,9.03,,,DENMARK
29/09/2020,1676095804,15501676095804,15501676095804,PARCEL,CLASIC,NEWBURY,6300,1100247723,3,1,9.02,,,AUSTRIA
29/09/2020,1676095806,15501676095806,15501676095806,PARCEL,CLASIC,NEWBURY,1972,1200052495,2,1,9.03,,,DENMARK
29/09/2020,1676095807,15501676095807,15501676095807,PARCEL,CLASIC,NEWBURY,8200,102734568,2,1,9.03,,,DENMARK
29/09/2020,1676095808,15501676095808,15501676095808,PARCEL,CLASIC,NEWBURY,4200,1200051933,3,1,9.03,,,DENMARK
29/09/2020,1676095809,15501676095809,15501676095809,PARCEL,CLASIC,NEWBURY,5492,1200052107,3,1,9.03,,,DENMARK
29/09/2020,1676095810,15501676095810,15501676095810,PARCEL,CLASIC,NEWBURY,70563,1100255415,7,1,7.43,,,GERMANY
29/09/2020,1676095813,15501676095813,15501676095813,PARCEL,CLASIC,NEWBURY,9220,1200051791,2,1,9.03,,,DENMARK
29/09/2020,1676095814,15501676095814,15501676095814,PARCEL,CLASIC,NEWBURY,5751,1100246731,13,1,9.02,,,AUSTRIA
29/09/2020,1676095815,15501676095815,15501676095815,PARCEL,CLASIC,NEWBURY,4600,1200051862,3,1,9.03,,,DENMARK
29/09/2020,1676095820,15501676095820,15501676095820,PARCEL,CLASIC,NEWBURY,30161,1100255287,1,1,7.43,,,GERMANY
29/09/2020,1676095821,15501676095821,15501676095821,PARCEL,CLASIC,NEWBURY,8680,1200051960,1,1,9.03,,,DENMARK
29/09/2020,1676095823,15501676095823,15501676095823,PARCEL,CLASIC,NEWBURY,91572,1100256128,1,1,7.43,,,GERMANY
29/09/2020,1676095831,15501676095831,15501676095831,PARCEL,CLASIC,NEWBURY,2770,1200052534,2,1,9.03,,,DENMARK
30/09/2020,1676095683,15501676095683,15501676095683,PARCEL,CLASIC,NEWBURY,4700,1200052459,2,1,9.03,,,DENMARK
30/09/2020,1676095824,15501676095824,15501676095824,PARCEL,CLASIC,NEWBURY,8232,1400068341,1,1,10.65,,,SPAIN
30/09/2020,1676095825,15501676095825,15501676095825,PARCEL,CLASIC,NEWBURY,33510,1400068232,1,1,10.65,,,SPAIN
30/09/2020,1676095826,15501676095826,15501676095826,PARCEL,CLASIC,NEWBURY,13600,102792799,1,1,9.41,,,FRANCE
30/09/2020,1676095827,15501676095827,15501676095827,PARCEL,CLASIC,NEWBURY,68170,1300183960,1,1,9.41,,,FRANCE
30/09/2020,1676095828,15501676095828,15501676095828,PARCEL,CLASIC,NEWBURY,23000,1300184076,1,1,9.41,,,FRANCE
30/09/2020,1676095829,15501676095829,15501676095829,PARCEL,CLASIC,NEWBURY,30000,1300184117,1,1,9.41,,,FRANCE
30/09/2020,1676095840,15501676095840,15501676095840,PARCEL,CLASIC,NEWBURY,7100,1200052372,1,1,9.03,,,DENMARK
30/09/2020,1676095841,15501676095841,15501676095841,PARCEL,CLASIC,NEWBURY,2740,1200052581,1,1,9.03,,,DENMARK
30/09/2020,1676095842,15501676095842,15501676095842,PARCEL,CLASIC,NEWBURY,3480,1200052313,1,1,9.03,,,DENMARK
30/09/2020,1676095846,15501676095846,15501676095846,PARCEL,CLASIC,NEWBURY,3000,1200052584,1,1,9.03,,,DENMARK
30/09/2020,1676095850,15501676095850,15501676095850,PARCEL,CLASIC,NEWBURY,7270,1200052389,2,1,9.03,,,DENMARK
30/09/2020,1676095851,15501676095851,15501676095851,PARCEL,CLASIC,NEWBURY,3700,1200051986,2,1,9.03,,,DENMARK
30/09/2020,1676095852,15501676095852,15501676095852,PARCEL,CLASIC,NEWBURY,3660,1200051937,1,1,9.03,,,DENMARK
30/09/2020,1676095853,15501676095853,15501676095853,PARCEL,CLASIC,NEWBURY,2650,1200051815,2,1,9.03,,,DENMARK
30/09/2020,1676095854,15501676095854,15501676095854,PARCEL,CLASIC,NEWBURY,1957,1200051839,2,1,9.03,,,DENMARK
30/09/2020,1676095855,15501676095855,15501676095855,PARCEL,CLASIC,NEWBURY,8700,1200052593,1,1,9.03,,,DENMARK
30/09/2020,1676095856,15501676095856,15501676095856,PARCEL,CLASIC,NEWBURY,47798,1100253721,1,1,7.43,,,GERMANY
30/09/2020,1676095858,15501676095858,15501676095858,PARCEL,CLASIC,NEWBURY,44795,1100256387,1,1,7.43,,,GERMANY
30/09/2020,1676095859,15501676095859,15501676095859,PARCEL,CLASIC,NEWBURY,44117,1300184290,1,1,9.41,,,FRANCE
30/09/2020,1676095860,15501676095860,15501676095860,PARCEL,CLASIC,NEWBURY,37000,1300184206,1,1,9.41,,,FRANCE
30/09/2020,1676095861,15501676095861,15501676095861,PARCEL,CLASIC,NEWBURY,57385,1300184225,1,1,9.41,,,FRANCE
30/09/2020,1676095862,15501676095862,15501676095862,PARCEL,CLASIC,NEWBURY,13240,1300184156,1,1,9.41,,,FRANCE
30/09/2020,1676095863,15501676095863,15501676095863,PARCEL,CLASIC,NEWBURY,29013,1400068363,1,1,10.65,,,SPAIN
30/09/2020,1676095864,15501676095864,15501676095864,PARCEL,CLASIC,NEWBURY,61479,1100256333,1,1,7.43,,,GERMANY
30/09/2020,1676095865,15501676095865,15501676095865,PARCEL,CLASIC,NEWBURY,96476,102785661,1,1,7.43,,,GERMANY
30/09/2020,1676095868,15501676095868,15501676095868,PARCEL,CLASIC,NEWBURY,8660,1200052199,1,1,9.03,,,DENMARK
30/09/2020,1676095869,15501676095869,15501676095869,PARCEL,CLASIC,NEWBURY,7100,1200052344,2,1,9.03,,,DENMARK
30/09/2020,1676095870,15501676095870,15501676095870,PARCEL,CLASIC,NEWBURY,6400,1200052309,1,1,9.03,,,DENMARK
30/09/2020,1676095871,15501676095871,15501676095871,PARCEL,CLASIC,NEWBURY,3600,1200052348,2,1,9.03,,,DENMARK
30/09/2020,1676095873,15501676095873,15501676095873,PARCEL,CLASIC,NEWBURY,7160,1200052578,2,1,9.03,,,DENMARK
30/09/2020,1676095874,15501676095874,15501676095874,PARCEL,CLASIC,NEWBURY,4040,1200052233,2,1,9.03,,,DENMARK
30/09/2020,1676095876,15501676095876,15501676095876,PARCEL,CLASIC,NEWBURY,8200,1200052367,1,1,9.03,,,DENMARK
01/10/2020,1676095878,15501676095878,15501676095878,PARCEL,CLASIC,NEWBURY,2740,1200052427,2,1,9.03,,,DENMARK
01/10/2020,1676095879,15501676095879,15501676095879,PARCEL,CLASIC,NEWBURY,67061,1100255838,1,1,7.43,,,GERMANY
01/10/2020,1676095881,15501676095881,15501676095881,PARCEL,CLASIC,NEWBURY,27211,1100253531,1,1,7.43,,,GERMANY
01/10/2020,1676095882,15501676095882,15501676095882,PARCEL,CLASIC,NEWBURY,8410,1200052597,1,1,9.03,,,DENMARK
01/10/2020,1676095883,15501676095883,15501676095883,PARCEL,CLASIC,NEWBURY,8381,1200051840,1,1,9.03,,,DENMARK
01/10/2020,1676095884,15501676095884,15501676095884,PARCEL,CLASIC,NEWBURY,2200,1200052609,1,1,9.03,,,DENMARK
01/10/2020,1676095885,15501676095885,15501676095885,PARCEL,CLASIC,NEWBURY,90489,1100256718,1,1,7.43,,,GERMANY
01/10/2020,1676095886,15501676095886,15501676095886,PARCEL,CLASIC,NEWBURY,1721,1200052599,2,1,9.03,,,DENMARK
01/10/2020,1676095887,15501676095887,15501676095887,PARCEL,CLASIC,NEWBURY,2610,1200052292,1,1,9.03,,,DENMARK
01/10/2020,1676095888,15501676095888,15501676095888,PARCEL,CLASIC,NEWBURY,95140,1300183056,1,1,9.41,,,FRANCE
01/10/2020,1676095889,15501676095889,15501676095889,PARCEL,CLASIC,NEWBURY,14000,1300182937,1,1,9.41,,,FRANCE
01/10/2020,1676095890,15501676095890,15501676095890,PARCEL,CLASIC,NEWBURY,93077,1100251696,1,1,7.43,,,GERMANY
01/10/2020,1676095891,15501676095891,15501676095891,PARCEL,CLASIC,NEWBURY,65183,1100253479,1,1,7.43,,,GERMANY
01/10/2020,1676095893,15501676095893,15501676095893,PARCEL,CLASIC,NEWBURY,89077,1100252488,1,1,7.43,,,GERMANY
01/10/2020,1676095894,15501676095894,15501676095894,PARCEL,CLASIC,NEWBURY,59320,1100254193,2,1,7.43,,,GERMANY
01/10/2020,1676095895,15501676095895,15501676095895,PARCEL,CLASIC,NEWBURY,58239,1100253336,10,1,7.43,,,GERMANY
01/10/2020,1676095898,15501676095898,15501676095898,PARCEL,CLASIC,NEWBURY,65462,1100253105,1,1,7.43,,,GERMANY
01/10/2020,1676095899,15501676095899,15501676095899,PARCEL,CLASIC,NEWBURY,44807,1100252424,1,1,7.43,,,GERMANY
01/10/2020,1676095900,15501676095900,15501676095900,PARCEL,CLASIC,NEWBURY,63654,1100252952,1,1,7.43,,,GERMANY
01/10/2020,1676095901,15501676095901,15501676095901,PARCEL,CLASIC,NEWBURY,93092,1100252609,1,1,7.43,,,GERMANY
01/10/2020,1676095902,15501676095902,15501676095902,PARCEL,CLASIC,NEWBURY,21000,102769867,1,1,9.41,,,FRANCE
01/10/2020,1676095903,15501676095903,15501676095903,PARCEL,CLASIC,NEWBURY,2860,1200052617,1,1,9.03,,,DENMARK
01/10/2020,1676095905,15501676095905,15501676095905,PARCEL,CLASIC,NEWBURY,27753,1100252675,1,1,7.43,,,GERMANY
01/10/2020,1676095906,15501676095906,15501676095906,PARCEL,CLASIC,NEWBURY,72631,102779016,3,1,7.43,,,GERMANY
01/10/2020,1676095907,15501676095907,15501676095907,PARCEL,CLASIC,NEWBURY,76684,1100252784,2,1,7.43,,,GERMANY
01/10/2020,1676095908,15501676095908,15501676095908,PARCEL,CLASIC,NEWBURY,2880,1200052460,1,1,9.03,,,DENMARK
01/10/2020,1676095910,15501676095910,15501676095910,PARCEL,CLASIC,NEWBURY,89173,1100256691,1,1,7.43,,,GERMANY
01/10/2020,1676095911,15501676095911,15501676095911,PARCEL,CLASIC,NEWBURY,88718,1100253355,1,1,7.43,,,GERMANY
01/10/2020,1676095912,15501676095912,15501676095912,PARCEL,CLASIC,NEWBURY,5792,1200052368,2,1,9.03,,,DENMARK
01/10/2020,1676095913,15501676095913,15501676095913,PARCEL,CLASIC,NEWBURY,4600,1200052377,2,1,9.03,,,DENMARK
01/10/2020,1676095914,15501676095914,15501676095914,PARCEL,CLASIC,NEWBURY,3500,1200051761,1,1,9.03,,,DENMARK
01/10/2020,1676095915,15501676095915,15501676095915,PARCEL,CLASIC,NEWBURY,4200,1200052211,2,1,9.03,,,DENMARK
01/10/2020,1676095917,15501676095917,15501676095917,PARCEL,CLASIC,NEWBURY,74160,700127441,1,1,9.41,,,FRANCE
01/10/2020,1676095918,15501676095918,15501676095918,PARCEL,CLASIC,NEWBURY,53721,1100251739,8,1,7.43,,,GERMANY
01/10/2020,1676095919,15501676095919,15501676095919,PARCEL,CLASIC,NEWBURY,3460,1200052318,1,1,9.03,,,DENMARK
01/10/2020,1676095920,15501676095920,15501676095920,PARCEL,CLASIC,NEWBURY,6510,1200052245,1,1,9.03,,,DENMARK
01/10/2020,1676095921,15501676095921,15501676095921,PARCEL,CLASIC,NEWBURY,79112,1100254306,2,1,7.43,,,GERMANY
01/10/2020,1676095922,15501676095922,15501676095922,PARCEL,CLASIC,NEWBURY,8270,1200052020,2,1,9.03,,,DENMARK
01/10/2020,1676095923,15501676095923,15501676095923,PARCEL,CLASIC,NEWBURY,8920,1200052299,1,1,9.03,,,DENMARK
01/10/2020,1676095924,15501676095924,15501676095924,PARCEL,CLASIC,NEWBURY,83119,1100251710,7,1,7.43,,,GERMANY
01/10/2020,1676095925,15501676095925,15501676095925,PARCEL,CLASIC,NEWBURY,30455,102780850,3,1,7.43,,,GERMANY
01/10/2020,1676095926,15501676095926,15501676095926,PARCEL,CLASIC,NEWBURY,6886,1100255445,1,1,7.43,,,GERMANY
01/10/2020,1676095927,15501676095927,15501676095927,PARCEL,CLASIC,NEWBURY,97204,1100251618,2,1,7.43,,,GERMANY
01/10/2020,1676095928,15501676095928,15501676095928,PARCEL,CLASIC,NEWBURY,65100,1300183495,5,1,9.41,,,FRANCE
01/10/2020,1676095929,15501676095929,15501676095929,PARCEL,CLASIC,NEWBURY,87435,1100252404,1,1,7.43,,,GERMANY
01/10/2020,1676095930,15501676095930,15501676095930,PARCEL,CLASIC,NEWBURY,67829,1100251713,1,1,7.43,,,GERMANY
01/10/2020,1676095933,15501676095933,15501676095933,PARCEL,CLASIC,NEWBURY,71636,1100249261,9,1,7.43,,,GERMANY
01/10/2020,1676095934,15501676095934,15501676095934,PARCEL,CLASIC,NEWBURY,4070,1200052462,1,1,9.03,,,DENMARK
01/10/2020,1676095935,15501676095935,15501676095935,PARCEL,CLASIC,NEWBURY,2650,1200052030,1,1,9.03,,,DENMARK
01/10/2020,1676095936,15501676095936,15501676095936,PARCEL,CLASIC,NEWBURY,41030,700128981,1,1,11.58,,,ITALY
01/10/2020,1676095937,15501676095937,15501676095937,PARCEL,CLASIC,NEWBURY,3001,102762237,3,1,6.65,,,BELGIUM
01/10/2020,1676095938,15501676095938,15501676095938,PARCEL,CLASIC,NEWBURY,79725,1100251949,1,1,7.43,,,GERMANY
01/10/2020,1676095939,15501676095939,15501676095939,PARCEL,CLASIC,NEWBURY,72108,1100250149,3,1,7.43,,,GERMANY
01/10/2020,1676095940,15501676095940,15501676095940,PARCEL,CLASIC,NEWBURY,52393,1100252195,3,1,7.43,,,GERMANY
01/10/2020,1676095941,15501676095941,15501676095941,PARCEL,CLASIC,NEWBURY,73207,1100250438,2,1,7.43,,,GERMANY
01/10/2020,1676095942,15501676095942,15501676095942,PARCEL,CLASIC,NEWBURY,76437,1100251050,2,1,7.43,,,GERMANY
01/10/2020,1676095943,15501676095943,15501676095943,PARCEL,CLASIC,NEWBURY,64000,1300182755,4,1,9.41,,,FRANCE
01/10/2020,1676095944,15501676095944,15501676095944,PARCEL,CLASIC,NEWBURY,38630,1300182989,2,1,9.41,,,FRANCE
01/10/2020,1676095945,15501676095945,15501676095945,PARCEL,CLASIC,NEWBURY,54578,1100250225,6,1,7.43,,,GERMANY
01/10/2020,1676095946,15501676095946,15501676095946,PARCEL,CLASIC,NEWBURY,82497,1100251716,1,1,7.43,,,GERMANY
01/10/2020,1676095947,15501676095947,15501676095947,PARCEL,CLASIC,NEWBURY,74321,1100251980,1,1,7.43,,,GERMANY
01/10/2020,1676095948,15501676095948,15501676095948,PARCEL,CLASIC,NEWBURY,1325,1300182395,1,1,6.65,,,BELGIUM
01/10/2020,1676095949,15501676095949,15501676095949,PARCEL,CLASIC,NEWBURY,79336,1100251830,1,1,7.43,,,GERMANY
01/10/2020,1676095950,15501676095950,15501676095950,PARCEL,CLASIC,NEWBURY,80686,1100250428,4,1,7.43,,,GERMANY
01/10/2020,1676095951,15501676095951,15501676095951,PARCEL,CLASIC,NEWBURY,89134,1100251992,1,1,7.43,,,GERMANY
01/10/2020,1676095952,15501676095952,15501676095952,PARCEL,CLASIC,NEWBURY,19288,1100250090,2,1,7.43,,,GERMANY
02/10/2020,1676095953,15501676095953,15501676095953,PARCEL,CLASIC,NEWBURY,86356,1100250963,2,1,7.43,,,GERMANY
02/10/2020,1676095954,15501676095954,15501676095954,PARCEL,CLASIC,NEWBURY,59368,1100251171,3,1,7.43,,,GERMANY
02/10/2020,1676095955,15501676095955,15501676095955,PARCEL,CLASIC,NEWBURY,15000,1300182436,2,1,9.41,,,FRANCE
02/10/2020,1676095956,15501676095956,15501676095956,PARCEL,CLASIC,NEWBURY,2100,1200052594,1,1,9.03,,,DENMARK
02/10/2020,1676095957,15501676095957,15501676095957,PARCEL,CLASIC,NEWBURY,63691,1100256619,1,1,7.43,,,GERMANY
02/10/2020,1676095958,15501676095958,15501676095958,PARCEL,CLASIC,NEWBURY,2920,1200052278,2,1,9.03,,,DENMARK
02/10/2020,1676095961,15501676095961,15501676095961,PARCEL,CLASIC,NEWBURY,5220,1200052596,2,1,9.03,,,DENMARK
02/10/2020,1676095962,15501676095962,15501676095962,PARCEL,CLASIC,NEWBURY,5584,1100251435,10,1,9.02,,,AUSTRIA
02/10/2020,1676095963,15501676095963,15501676095963,PARCEL,CLASIC,NEWBURY,81247,1100251867,4,1,7.43,,,GERMANY
02/10/2020,1676095964,15501676095964,15501676095964,PARCEL,CLASIC,NEWBURY,3090,700129472,2,1,6.65,,,BELGIUM
02/10/2020,1676095965,15501676095965,15501676095965,PARCEL,CLASIC,NEWBURY,8220,1200052642,1,1,9.03,,,DENMARK
02/10/2020,1676095967,15501676095967,15501676095967,PARCEL,CLASIC,NEWBURY,91792,1100255873,1,1,7.43,,,GERMANY
02/10/2020,1676095968,15501676095968,15501676095968,PARCEL,CLASIC,NEWBURY,83043,1100252519,1,1,7.43,,,GERMANY
02/10/2020,1676095969,15501676095969,15501676095969,PARCEL,CLASIC,NEWBURY,33240,1300183672,6,1,9.41,,,FRANCE
02/10/2020,1676095970,15501676095970,15501676095970,PARCEL,CLASIC,NEWBURY,8641,1200052208,1,1,9.03,,,DENMARK
02/10/2020,1676095971,15501676095971,15501676095971,PARCEL,CLASIC,NEWBURY,5700,1200052620,1,1,9.03,,,DENMARK
02/10/2020,1676095974,15501676095974,15501676095974,PARCEL,CLASIC,NEWBURY,1826,1200052645,1,1,9.03,,,DENMARK
02/10/2020,1676095975,15501676095975,15501676095975,PARCEL,CLASIC,NEWBURY,2800,1200052320,1,1,9.03,,,DENMARK
02/10/2020,1676095977,15501676095977,15501676095977,PARCEL,CLASIC,NEWBURY,5000,1200052449,2,1,9.03,,,DENMARK
02/10/2020,1676095978,15501676095978,15501676095978,PARCEL,CLASIC,NEWBURY,30012,1400067579,2,1,10.65,,,SPAIN
02/10/2020,1676095979,15501676095979,15501676095979,PARCEL,CLASIC,NEWBURY,2300,1200052600,1,1,9.03,,,DENMARK
02/10/2020,1676095980,15501676095980,15501676095980,PARCEL,CLASIC,NEWBURY,5466,1200052553,2,1,9.03,,,DENMARK
02/10/2020,1676095981,15501676095981,15501676095981,PARCEL,CLASIC,NEWBURY,2840,1200052009,1,1,9.03,,,DENMARK
02/10/2020,1676095982,15501676095982,15501676095982,PARCEL,CLASIC,NEWBURY,3450,1200052267,1,1,9.03,,,DENMARK
02/10/2020,1676095984,15501676095984,15501676095984,PARCEL,CLASIC,NEWBURY,8600,1200052447,1,1,9.03,,,DENMARK
02/10/2020,1676095987,15501676095987,15501676095987,PARCEL,CLASIC,NEWBURY,4780,1200052337,1,1,9.03,,,DENMARK
02/10/2020,1676095988,15501676095988,15501676095988,PARCEL,CLASIC,NEWBURY,30926,1100255289,1,1,7.43,,,GERMANY
02/10/2020,1676095989,15501676095989,15501676095989,PARCEL,CLASIC,NEWBURY,8270,1200052608,1,1,9.03,,,DENMARK
02/10/2020,1676095990,15501676095990,15501676095990,PARCEL,CLASIC,NEWBURY,4850,1200052632,1,1,9.03,,,DENMARK
02/10/2020,1676095991,15501676095991,15501676095991,PARCEL,CLASIC,NEWBURY,85120,1100255969,2,1,7.43,,,GERMANY
02/10/2020,1676095992,15501676095992,15501676095992,PARCEL,CLASIC,NEWBURY,77186,1300184370,1,1,9.41,,,FRANCE
02/10/2020,1676095999,15501676095999,15501676095999,PARCEL,CLASIC,NEWBURY,5250,1200052619,1,1,9.03,,,DENMARK
02/10/2020,1676096000,15501676096000,15501676096000,PARCEL,CLASIC,NEWBURY,13503,1100252371,2,1,7.43,,,GERMANY
02/10/2020,1676096001,15501676096001,15501676096001,PARCEL,CLASIC,NEWBURY,59394,1100253045,1,1,7.43,,,GERMANY
02/10/2020,1676096002,15501676096002,15501676096002,PARCEL,CLASIC,NEWBURY,73278,1100253311,1,1,7.43,,,GERMANY
02/10/2020,1676096007,15501676096007,15501676096007,PARCEL,CLASIC,NEWBURY,2100,102783194,2,1,9.03,,,DENMARK
02/10/2020,1676096008,15501676096008,15501676096008,PARCEL,CLASIC,NEWBURY,2930,1200052333,1,1,9.03,,,DENMARK
28/09/2020,8002976654,15508002976654,15508002976654,PARCEL,2DAY,HUB 4 - Hinckley,NN10 6GL,rtc no invoice,5,1,11.20,,,
29/09/2020,8002991399,15508002991399,15508002991399,PARCEL,NXTDAY,HUB 3 - Bham,NN10 6GL,RTC,2,1,11.20,,4.99,
30/09/2020,8002994984,15508002994984,15508002994984,PARCEL,NXTDAY,HUB 3 - Bham,NN10 6GL,RTC GT,1,1,11.20,,4.99,
01/10/2020,8002004538,15508002004538,15508002004538,PARCEL,NXTDAY,HUB 3 - Bham,NN10 6GL,RTC 3 DAY HELD,2,1,11.20,,,
